# vtk DataFile Version 3.0
vtk output
ASCII
DATASET UNSTRUCTURED_GRID
POINTS 1792 float
0.029663 -0.218253 -0.082635 0.040869 -0.167196 -0.11591 0.080362 -0.155208 -0.107275 
0.058757 -0.203252 -0.077389 0.040869 -0.167196 -0.11591 0.051928 -0.104844 -0.147512 
0.102964 -0.095836 -0.1361 0.080362 -0.155208 -0.107275 0.058757 -0.203252 -0.077389 
0.080362 -0.155208 -0.107275 0.116378 -0.139953 -0.092183 0.085853 -0.184363 -0.067811 
0.080362 -0.155208 -0.107275 0.102964 -0.095836 -0.1361 0.151392 -0.083072 -0.117013 
0.116378 -0.139953 -0.092183 -0 -0.262968 -0.05201 0 -0.224344 -0.084276 
0.029663 -0.218253 -0.082635 0.020413 -0.255805 -0.051296 0 -0.224344 -0.084276 
-0 -0.171972 -0.118703 0.040869 -0.167196 -0.11591 0.029663 -0.218253 -0.082635 
-0 -0.171972 -0.118703 0 -0.108161 -0.15138 0.051928 -0.104844 -0.147512 
0.040869 -0.167196 -0.11591 0 -0.108161 -0.15138 -0 -0.035484 -0.178188 
0.06036 -0.03373 -0.173577 0.051928 -0.104844 -0.147512 0.051928 -0.104844 -0.147512 
0.06036 -0.03373 -0.173577 0.120448 -0.027798 -0.160677 0.102964 -0.095836 -0.1361 
0.102964 -0.095836 -0.1361 0.120448 -0.027798 -0.160677 0.180286 -0.016317 -0.140496 
0.151392 -0.083072 -0.117013 0.151392 -0.083072 -0.117013 0.180286 -0.016317 -0.140496 
0.2451 0.006202 -0.10951 0.190636 -0.071615 -0.087892 0.116378 -0.139953 -0.092183 
0.151392 -0.083072 -0.117013 0.190636 -0.071615 -0.087892 0.143918 -0.126664 -0.06895 
0.085853 -0.184363 -0.067811 0.116378 -0.139953 -0.092183 0.143918 -0.126664 -0.06895 
0.105981 -0.168708 -0.052142 0.06395 -0.214699 -0.044788 0.085853 -0.184363 -0.067811 
0.105981 -0.168708 -0.052142 0.081968 -0.194971 -0.040222 0.041719 -0.237921 -0.048943 
0.058757 -0.203252 -0.077389 0.085853 -0.184363 -0.067811 0.06395 -0.214699 -0.044788 
0.020413 -0.255805 -0.051296 0.029663 -0.218253 -0.082635 0.058757 -0.203252 -0.077389 
0.041719 -0.237921 -0.048943 0.31562 0.055364 0.054483 0.318407 0.049726 -0 
0.358148 0.111956 -0 0.355918 0.117682 0.050894 0.318407 0.049726 -0 
0.31562 0.055364 -0.054483 0.355918 0.117682 -0.050894 0.358148 0.111956 -0 
0.355918 0.117682 0.050894 0.358148 0.111956 -0 0.386004 0.171479 -0 
0.383004 0.174985 0.045755 0.358148 0.111956 -0 0.355918 0.117682 -0.050894 
0.383004 0.174985 -0.045755 0.386004 0.171479 -0 0.2451 0.006202 0.10951 
0.265122 -0.008453 0.054233 0.31562 0.055364 0.054483 0.307657 0.0776 0.101176 
0.265122 -0.008453 0.054233 0.269642 -0.011544 -0 0.318407 0.049726 -0 
0.31562 0.055364 0.054483 0.269642 -0.011544 -0 0.265122 -0.008453 -0.054233 
0.31562 0.055364 -0.054483 0.318407 0.049726 -0 0.265122 -0.008453 -0.054233 
0.2451 0.006202 -0.10951 0.307657 0.0776 -0.101176 0.31562 0.055364 -0.054483 
0.31562 0.055364 -0.054483 0.307657 0.0776 -0.101176 0.348976 0.137811 -0.093703 
0.355918 0.117682 -0.050894 0.355918 0.117682 -0.050894 0.348976 0.137811 -0.093703 
0.375709 0.189717 -0.083373 0.383004 0.174985 -0.045755 0.383004 0.174985 -0.045755 
0.375709 0.189717 -0.083373 0.388586 0.225078 -0.072186 0.396769 0.22662 -0.04273 
0.386004 0.171479 -0 0.383004 0.174985 -0.045755 0.396769 0.22662 -0.04273 
0.40092 0.227453 -0 0.383004 0.174985 0.045755 0.386004 0.171479 -0 
0.40092 0.227453 -0 0.396769 0.22662 0.04273 0.375709 0.189717 0.083373 
0.383004 0.174985 0.045755 0.396769 0.22662 0.04273 0.388586 0.225078 0.072186 
0.348976 0.137811 0.093703 0.355918 0.117682 0.050894 0.383004 0.174985 0.045755 
0.375709 0.189717 0.083373 0.307657 0.0776 0.101176 0.31562 0.055364 0.054483 
0.355918 0.117682 0.050894 0.348976 0.137811 0.093703 0.151392 -0.083072 0.117013 
0.102964 -0.095836 0.1361 0.080362 -0.155208 0.107275 0.116378 -0.139953 0.092183 
0.102964 -0.095836 0.1361 0.051928 -0.104844 0.147512 0.040869 -0.167196 0.11591 
0.080362 -0.155208 0.107275 0.116378 -0.139953 0.092183 0.080362 -0.155208 0.107275 
0.058757 -0.203252 0.077389 0.085853 -0.184363 0.067811 0.080362 -0.155208 0.107275 
0.040869 -0.167196 0.11591 0.029663 -0.218253 0.082635 0.058757 -0.203252 0.077389 
0.2451 0.006202 0.10951 0.180286 -0.016317 0.140496 0.151392 -0.083072 0.117013 
0.190636 -0.071615 0.087892 0.180286 -0.016317 0.140496 0.120448 -0.027798 0.160677 
0.102964 -0.095836 0.1361 0.151392 -0.083072 0.117013 0.120448 -0.027798 0.160677 
0.06036 -0.03373 0.173577 0.051928 -0.104844 0.147512 0.102964 -0.095836 0.1361 
0.06036 -0.03373 0.173577 -0 -0.035484 0.178188 -0 -0.108161 0.15138 
0.051928 -0.104844 0.147512 0.051928 -0.104844 0.147512 -0 -0.108161 0.15138 
-0 -0.171972 0.118703 0.040869 -0.167196 0.11591 0.040869 -0.167196 0.11591 
-0 -0.171972 0.118703 -0 -0.224344 0.084276 0.029663 -0.218253 0.082635 
0.029663 -0.218253 0.082635 -0 -0.224344 0.084276 -0 -0.262968 0.05201 
0.020413 -0.255805 0.051296 0.058757 -0.203252 0.077389 0.029663 -0.218253 0.082635 
0.020413 -0.255805 0.051296 0.041719 -0.237921 0.048943 0.085853 -0.184363 0.067811 
0.058757 -0.203252 0.077389 0.041719 -0.237921 0.048943 0.06395 -0.214699 0.044789 
0.105981 -0.168708 0.052142 0.085853 -0.184363 0.067811 0.06395 -0.214699 0.044789 
0.081968 -0.194971 0.040222 0.143918 -0.126664 0.06895 0.116378 -0.139953 0.092183 
0.085853 -0.184363 0.067811 0.105981 -0.168708 0.052142 0.190636 -0.071615 0.087892 
0.151392 -0.083072 0.117013 0.116378 -0.139953 0.092183 0.143918 -0.126664 0.06895 
0.114335 -0.162246 -0.028376 0.158825 -0.119765 -0.03692 0.162853 -0.117775 0 
0.115794 -0.160779 0 0.158825 -0.119765 -0.03692 0.210733 -0.068333 -0.046701 
0.215857 -0.067873 -0 0.162853 -0.117775 0 0.115794 -0.160779 0 
0.162853 -0.117775 0 0.158825 -0.119765 0.03692 0.114335 -0.162246 0.028376 
0.162853 -0.117775 0 0.215857 -0.067873 -0 0.210733 -0.068333 0.046701 
0.158825 -0.119765 0.03692 0.081968 -0.194971 -0.040222 0.105981 -0.168708 -0.052142 
0.114335 -0.162246 -0.028376 0.07911 -0.197911 -0.023028 0.105981 -0.168708 -0.052142 
0.143918 -0.126664 -0.06895 0.158825 -0.119765 -0.03692 0.114335 -0.162246 -0.028376 
0.143918 -0.126664 -0.06895 0.190636 -0.071615 -0.087892 0.210733 -0.068333 -0.046701 
0.158825 -0.119765 -0.03692 0.190636 -0.071615 -0.087892 0.2451 0.006202 -0.10951 
0.265122 -0.008453 -0.054233 0.210733 -0.068333 -0.046701 0.210733 -0.068333 -0.046701 
0.265122 -0.008453 -0.054233 0.269642 -0.011544 -0 0.215857 -0.067873 -0 
0.215857 -0.067873 -0 0.269642 -0.011544 -0 0.265122 -0.008453 0.054233 
0.210733 -0.068333 0.046701 0.210733 -0.068333 0.046701 0.265122 -0.008453 0.054233 
0.2451 0.006202 0.10951 0.190636 -0.071615 0.087892 0.158825 -0.119765 0.03692 
0.210733 -0.068333 0.046701 0.190636 -0.071615 0.087892 0.143918 -0.126664 0.06895 
0.114335 -0.162246 0.028376 0.158825 -0.119765 0.03692 0.143918 -0.126664 0.06895 
0.105981 -0.168708 0.052142 0.07911 -0.197911 0.023028 0.114335 -0.162246 0.028376 
0.105981 -0.168708 0.052142 0.081968 -0.194971 0.040222 0.077408 -0.199024 0 
0.115794 -0.160779 0 0.114335 -0.162246 0.028376 0.07911 -0.197911 0.023028 
0.07911 -0.197911 -0.023028 0.114335 -0.162246 -0.028376 0.115794 -0.160779 0 
0.077408 -0.199024 0 0.268565 0.227333 0.158089 0.286467 0.175988 0.149024 
0.323592 0.220471 0.138474 0.301247 0.267879 0.147099 0.286467 0.175988 0.149024 
0.298962 0.122384 0.131835 0.338798 0.174332 0.12217 0.323592 0.220471 0.138474 
0.301247 0.267879 0.147099 0.323592 0.220471 0.138474 0.352267 0.264506 0.121759 
0.328658 0.30932 0.128831 0.323592 0.220471 0.138474 0.338798 0.174332 0.12217 
0.366839 0.221883 0.107736 0.352267 0.264506 0.121759 0.221118 0.238423 0.16989 
0.23054 0.19828 0.16702 0.268565 0.227333 0.158089 0.242728 0.269394 0.164002 
0.23054 0.19828 0.16702 0.241154 0.141405 0.159166 0.286467 0.175988 0.149024 
0.268565 0.227333 0.158089 0.241154 0.141405 0.159166 0.248202 0.077848 0.142895 
0.298962 0.122384 0.131835 0.286467 0.175988 0.149024 0.248202 0.077848 0.142895 
0.2451 0.006202 0.10951 0.307657 0.0776 0.101176 0.298962 0.122384 0.131835 
0.298962 0.122384 0.131835 0.307657 0.0776 0.101176 0.348976 0.137811 0.093703 
0.338798 0.174332 0.12217 0.338798 0.174332 0.12217 0.348976 0.137811 0.093703 
0.375709 0.189717 0.083373 0.366839 0.221883 0.107736 0.366839 0.221883 0.107736 
0.375709 0.189717 0.083373 0.388586 0.225078 0.072186 0.385341 0.257159 0.083724 
0.352267 0.264506 0.121759 0.366839 0.221883 0.107736 0.385341 0.257159 0.083724 
0.372831 0.300038 0.093565 0.328658 0.30932 0.128831 0.352267 0.264506 0.121759 
0.372831 0.300038 0.093565 0.349329 0.343707 0.098456 0.295801 0.350807 0.132687 
0.328658 0.30932 0.128831 0.349329 0.343707 0.098456 0.316059 0.383678 0.100604 
0.270147 0.310485 0.152524 0.301247 0.267879 0.147099 0.328658 0.30932 0.128831 
0.295801 0.350807 0.132687 0.242728 0.269394 0.164002 0.268565 0.227333 0.158089 
0.301247 0.267879 0.147099 0.270147 0.310485 0.152524 0.397421 0.274704 -0.046115 
0.38556 0.321093 -0.050949 0.38996 0.327756 -0 0.401972 0.279533 -0 
0.38556 0.321093 -0.050949 0.361966 0.364956 -0.05344 0.366182 0.371984 -0 
0.38996 0.327756 -0 0.401972 0.279533 -0 0.38996 0.327756 -0 
0.38556 0.321093 0.050949 0.397421 0.274704 0.046115 0.38996 0.327756 -0 
0.366182 0.371984 -0 0.361966 0.364956 0.05344 0.38556 0.321093 0.050949 
0.388586 0.225078 -0.072186 0.385341 0.257159 -0.083724 0.397421 0.274704 -0.046115 
0.396769 0.22662 -0.04273 0.385341 0.257159 -0.083724 0.372831 0.300038 -0.093565 
0.38556 0.321093 -0.050949 0.397421 0.274704 -0.046115 0.372831 0.300038 -0.093565 
0.349329 0.343707 -0.098456 0.361966 0.364956 -0.05344 0.38556 0.321093 -0.050949 
0.349329 0.343707 -0.098456 0.316059 0.383678 -0.100604 0.32856 0.404048 -0.054356 
0.361966 0.364956 -0.05344 0.361966 0.364956 -0.05344 0.32856 0.404048 -0.054356 
0.332705 0.41082 -0 0.366182 0.371984 -0 0.366182 0.371984 -0 
0.332705 0.41082 -0 0.32856 0.404048 0.054356 0.361966 0.364956 0.05344 
0.361966 0.364956 0.05344 0.32856 0.404048 0.054356 0.316059 0.383678 0.100604 
0.349329 0.343707 0.098456 0.38556 0.321093 0.050949 0.361966 0.364956 0.05344 
0.349329 0.343707 0.098456 0.372831 0.300038 0.093565 0.397421 0.274704 0.046115 
0.38556 0.321093 0.050949 0.372831 0.300038 0.093565 0.385341 0.257159 0.083724 
0.396769 0.22662 0.04273 0.397421 0.274704 0.046115 0.385341 0.257159 0.083724 
0.388586 0.225078 0.072186 0.40092 0.227453 -0 0.401972 0.279533 -0 
0.397421 0.274704 0.046115 0.396769 0.22662 0.04273 0.396769 0.22662 -0.04273 
0.397421 0.274704 -0.046115 0.401972 0.279533 -0 0.40092 0.227453 -0 
0.287996 0.435908 -0.054859 0.244423 0.457821 -0.053869 0.247966 0.464124 -0 
0.292085 0.442403 -0 0.244423 0.457821 -0.053869 0.201946 0.467419 -0.050718 
0.203816 0.473451 -0 0.247966 0.464124 -0 0.292085 0.442403 -0 
0.247966 0.464124 -0 0.244423 0.457821 0.053869 0.287995 0.435908 0.054859 
0.247966 0.464124 -0 0.203816 0.473451 -0 0.201946 0.467419 0.050718 
0.244423 0.457821 0.053869 0.316059 0.383678 -0.100604 0.275516 0.416414 -0.102064 
0.287996 0.435908 -0.054859 0.32856 0.404048 -0.054356 0.275516 0.416414 -0.102064 
0.232615 0.439334 -0.100604 0.244423 0.457821 -0.053869 0.287996 0.435908 -0.054859 
0.232615 0.439334 -0.100604 0.193002 0.450879 -0.093687 0.201946 0.467419 -0.050718 
0.244423 0.457821 -0.053869 0.193002 0.450879 -0.093687 0.165323 0.452954 -0.083574 
0.162805 0.463391 -0.04947 0.201946 0.467419 -0.050718 0.201946 0.467419 -0.050718 
0.162805 0.463391 -0.04947 0.161543 0.468574 -0 0.203816 0.473451 -0 
0.203816 0.473451 -0 0.161543 0.468574 -0 0.162805 0.463391 0.04947 
0.201946 0.467419 0.050718 0.201946 0.467419 0.050718 0.162805 0.463391 0.04947 
0.165323 0.452954 0.083574 0.193002 0.450879 0.093687 0.244423 0.457821 0.053869 
0.201946 0.467419 0.050718 0.193002 0.450879 0.093687 0.232615 0.439334 0.100604 
0.287995 0.435908 0.054859 0.244423 0.457821 0.053869 0.232615 0.439334 0.100604 
0.275516 0.416414 0.102064 0.32856 0.404048 0.054356 0.287995 0.435908 0.054859 
0.275516 0.416414 0.102064 0.316059 0.383678 0.100604 0.332705 0.41082 -0 
0.292085 0.442403 -0 0.287995 0.435908 0.054859 0.32856 0.404048 0.054356 
0.32856 0.404048 -0.054356 0.287996 0.435908 -0.054859 0.292085 0.442403 -0 
0.332705 0.41082 -0 0.205185 0.298234 -0.170656 0.158456 0.321014 -0.174394 
0.185552 0.369798 -0.158392 0.230217 0.344158 -0.157628 0.158456 0.321014 -0.174394 
0.107734 0.342852 -0.168547 0.141835 0.389468 -0.148588 0.185552 0.369798 -0.158392 
0.230217 0.344158 -0.157628 0.185552 0.369798 -0.158392 0.21194 0.409623 -0.134871 
0.255226 0.384763 -0.135835 0.185552 0.369798 -0.158392 0.141835 0.389468 -0.148588 
0.171865 0.425354 -0.124908 0.21194 0.409623 -0.134871 0.221118 0.238423 -0.16989 
0.187801 0.247664 -0.177133 0.205185 0.298234 -0.170656 0.242728 0.269394 -0.164003 
0.187801 0.247664 -0.177133 0.138164 0.262919 -0.184442 0.158456 0.321014 -0.174394 
0.205185 0.298234 -0.170656 0.138164 0.262919 -0.184442 0.078725 0.283622 -0.185804 
0.107734 0.342852 -0.168547 0.158456 0.321014 -0.174394 0.078725 0.283622 -0.185804 
0 0.316668 -0.169428 0.064893 0.364927 -0.140603 0.107734 0.342852 -0.168547 
0.107734 0.342852 -0.168547 0.064893 0.364927 -0.140603 0.107218 0.404811 -0.119802 
0.141835 0.389468 -0.148588 0.141835 0.389468 -0.148588 0.107218 0.404811 -0.119802 
0.141647 0.435686 -0.100232 0.171865 0.425354 -0.124908 0.171865 0.425354 -0.124908 
0.141647 0.435686 -0.100232 0.165323 0.452954 -0.083574 0.193002 0.450879 -0.093687 
0.21194 0.409623 -0.134871 0.171865 0.425354 -0.124908 0.193002 0.450879 -0.093687 
0.232615 0.439334 -0.100604 0.255226 0.384763 -0.135835 0.21194 0.409623 -0.134871 
0.232615 0.439334 -0.100604 0.275516 0.416414 -0.102064 0.295801 0.350807 -0.132687 
0.255226 0.384763 -0.135835 0.275516 0.416414 -0.102064 0.316059 0.383678 -0.100604 
0.270147 0.310485 -0.152524 0.230217 0.344158 -0.157628 0.255226 0.384763 -0.135835 
0.295801 0.350807 -0.132687 0.242728 0.269394 -0.164003 0.205185 0.298234 -0.170656 
0.230217 0.344158 -0.157628 0.270147 0.310485 -0.152524 0.298962 0.122384 -0.131835 
0.286467 0.175988 -0.149024 0.323592 0.220471 -0.138474 0.338798 0.174332 -0.12217 
0.286467 0.175988 -0.149024 0.268565 0.227333 -0.158089 0.301247 0.267879 -0.147099 
0.323592 0.220471 -0.138474 0.338798 0.174332 -0.12217 0.323592 0.220471 -0.138474 
0.352267 0.264506 -0.121759 0.366839 0.221883 -0.107736 0.323592 0.220471 -0.138474 
0.301247 0.267879 -0.147099 0.328658 0.30932 -0.128831 0.352267 0.264506 -0.121759 
0.2451 0.006202 -0.10951 0.248202 0.077848 -0.142895 0.298962 0.122384 -0.131835 
0.307657 0.0776 -0.101176 0.248202 0.077848 -0.142895 0.241154 0.141405 -0.159166 
0.286467 0.175988 -0.149024 0.298962 0.122384 -0.131835 0.241154 0.141405 -0.159166 
0.23054 0.19828 -0.16702 0.268565 0.227333 -0.158089 0.286467 0.175988 -0.149024 
0.23054 0.19828 -0.16702 0.221118 0.238423 -0.16989 0.242728 0.269394 -0.164003 
0.268565 0.227333 -0.158089 0.268565 0.227333 -0.158089 0.242728 0.269394 -0.164003 
0.270147 0.310485 -0.152524 0.301247 0.267879 -0.147099 0.301247 0.267879 -0.147099 
0.270147 0.310485 -0.152524 0.295801 0.350807 -0.132687 0.328658 0.30932 -0.128831 
0.328658 0.30932 -0.128831 0.295801 0.350807 -0.132687 0.316059 0.383678 -0.100604 
0.349329 0.343707 -0.098456 0.352267 0.264506 -0.121759 0.328658 0.30932 -0.128831 
0.349329 0.343707 -0.098456 0.372831 0.300038 -0.093565 0.366839 0.221883 -0.107736 
0.352267 0.264506 -0.121759 0.372831 0.300038 -0.093565 0.385341 0.257159 -0.083724 
0.375709 0.189717 -0.083373 0.366839 0.221883 -0.107736 0.385341 0.257159 -0.083724 
0.388586 0.225078 -0.072186 0.348976 0.137811 -0.093703 0.338798 0.174332 -0.12217 
0.366839 0.221883 -0.107736 0.375709 0.189717 -0.083373 0.307657 0.0776 -0.101176 
0.298962 0.122384 -0.131835 0.338798 0.174332 -0.12217 0.348976 0.137811 -0.093703 
0.046044 0.384662 -0.078612 0.041841 0.392363 -0 0.082684 0.42097 -0 
0.088171 0.416357 -0.066864 0.041841 0.392363 -0 0.046044 0.384662 0.078612 
0.088171 0.416357 0.066864 0.082684 0.42097 -0 0.088171 0.416357 -0.066864 
0.082684 0.42097 -0 0.121885 0.449245 -0 0.126229 0.445008 -0.056007 
0.082684 0.42097 -0 0.088171 0.416357 0.066864 0.126229 0.445008 0.056007 
0.121885 0.449245 -0 0 0.316668 -0.169428 -0 0.368167 -0.085808 
0.046044 0.384662 -0.078612 0.064893 0.364927 -0.140603 -0 0.368167 -0.085808 
-0 0.379014 0 0.041841 0.392363 -0 0.046044 0.384662 -0.078612 
-0 0.379014 0 -0 0.368167 0.085808 0.046044 0.384662 0.078612 
0.041841 0.392363 -0 -0 0.368167 0.085808 -0 0.316668 0.169428 
0.064893 0.364927 0.140603 0.046044 0.384662 0.078612 0.046044 0.384662 0.078612 
0.064893 0.364927 0.140603 0.107218 0.404811 0.119802 0.088171 0.416357 0.066864 
0.088171 0.416357 0.066864 0.107218 0.404811 0.119802 0.141647 0.435686 0.100232 
0.126229 0.445008 0.056007 0.126229 0.445008 0.056007 0.141647 0.435686 0.100232 
0.165323 0.452954 0.083574 0.162805 0.463391 0.04947 0.121885 0.449245 -0 
0.126229 0.445008 0.056007 0.162805 0.463391 0.04947 0.161543 0.468574 -0 
0.126229 0.445008 -0.056007 0.121885 0.449245 -0 0.161543 0.468574 -0 
0.162805 0.463391 -0.04947 0.141647 0.435686 -0.100232 0.126229 0.445008 -0.056007 
0.162805 0.463391 -0.04947 0.165323 0.452954 -0.083574 0.107218 0.404811 -0.119802 
0.088171 0.416357 -0.066864 0.126229 0.445008 -0.056007 0.141647 0.435686 -0.100232 
0.064893 0.364927 -0.140603 0.046044 0.384662 -0.078612 0.088171 0.416357 -0.066864 
0.107218 0.404811 -0.119802 0.107734 0.342852 0.168547 0.158456 0.321014 0.174394 
0.185552 0.369798 0.158392 0.141835 0.389468 0.148588 0.158456 0.321014 0.174394 
0.205185 0.298234 0.170656 0.230217 0.344158 0.157628 0.185552 0.369798 0.158392 
0.141835 0.389468 0.148588 0.185552 0.369798 0.158392 0.21194 0.409623 0.134871 
0.171865 0.425354 0.124908 0.185552 0.369798 0.158392 0.230217 0.344158 0.157628 
0.255226 0.384763 0.135835 0.21194 0.409623 0.134871 -0 0.316668 0.169428 
0.078725 0.283622 0.185804 0.107734 0.342852 0.168547 0.064893 0.364927 0.140603 
0.078725 0.283622 0.185804 0.138164 0.262919 0.184442 0.158456 0.321014 0.174394 
0.107734 0.342852 0.168547 0.138164 0.262919 0.184442 0.187801 0.247664 0.177133 
0.205185 0.298234 0.170656 0.158456 0.321014 0.174394 0.187801 0.247664 0.177133 
0.221118 0.238423 0.16989 0.242728 0.269394 0.164002 0.205185 0.298234 0.170656 
0.205185 0.298234 0.170656 0.242728 0.269394 0.164002 0.270147 0.310485 0.152524 
0.230217 0.344158 0.157628 0.230217 0.344158 0.157628 0.270147 0.310485 0.152524 
0.295801 0.350807 0.132687 0.255226 0.384763 0.135835 0.255226 0.384763 0.135835 
0.295801 0.350807 0.132687 0.316059 0.383678 0.100604 0.275516 0.416414 0.102064 
0.21194 0.409623 0.134871 0.255226 0.384763 0.135835 0.275516 0.416414 0.102064 
0.232615 0.439334 0.100604 0.171865 0.425354 0.124908 0.21194 0.409623 0.134871 
0.232615 0.439334 0.100604 0.193002 0.450879 0.093687 0.141647 0.435686 0.100232 
0.171865 0.425354 0.124908 0.193002 0.450879 0.093687 0.165323 0.452954 0.083574 
0.107218 0.404811 0.119802 0.141835 0.389468 0.148588 0.171865 0.425354 0.124908 
0.141647 0.435686 0.100232 0.064893 0.364927 0.140603 0.107734 0.342852 0.168547 
0.141835 0.389468 0.148588 0.107218 0.404811 0.119802 0.014736 -0.278178 -0.024307 
0.031567 -0.257951 -0.023535 0.028286 -0.264073 0 0.012855 -0.285264 0 
0.031567 -0.257951 -0.023535 0.052437 -0.230043 -0.02241 0.048898 -0.234204 0 
0.028286 -0.264073 0 0.012855 -0.285264 0 0.028286 -0.264073 0 
0.031567 -0.257951 0.023535 0.014736 -0.278178 0.024307 0.028286 -0.264073 0 
0.048898 -0.234204 0 0.052437 -0.230043 0.02241 0.031567 -0.257951 0.023535 
-0 -0.262968 -0.05201 0.020413 -0.255805 -0.051296 0.014736 -0.278178 -0.024307 
-0 -0.286048 -0.02453 0.020413 -0.255805 -0.051296 0.041719 -0.237921 -0.048943 
0.031567 -0.257951 -0.023535 0.014736 -0.278178 -0.024307 0.041719 -0.237921 -0.048943 
0.06395 -0.214699 -0.044788 0.052437 -0.230043 -0.02241 0.031567 -0.257951 -0.023535 
0.06395 -0.214699 -0.044788 0.081968 -0.194971 -0.040222 0.07911 -0.197911 -0.023028 
0.052437 -0.230043 -0.02241 0.052437 -0.230043 -0.02241 0.07911 -0.197911 -0.023028 
0.077408 -0.199024 0 0.048898 -0.234204 0 0.048898 -0.234204 0 
0.077408 -0.199024 0 0.07911 -0.197911 0.023028 0.052437 -0.230043 0.02241 
0.052437 -0.230043 0.02241 0.07911 -0.197911 0.023028 0.081968 -0.194971 0.040222 
0.06395 -0.214699 0.044789 0.031567 -0.257951 0.023535 0.052437 -0.230043 0.02241 
0.06395 -0.214699 0.044789 0.041719 -0.237921 0.048943 0.014736 -0.278178 0.024307 
0.031567 -0.257951 0.023535 0.041719 -0.237921 0.048943 0.020413 -0.255805 0.051296 
-0 -0.286048 0.02453 0.014736 -0.278178 0.024307 0.020413 -0.255805 0.051296 
-0 -0.262968 0.05201 -0 -0.293395 0 0.012855 -0.285264 0 
0.014736 -0.278178 0.024307 -0 -0.286048 0.02453 -0 -0.286048 -0.02453 
0.014736 -0.278178 -0.024307 0.012855 -0.285264 0 -0 -0.293395 0 
0.189942 0.05461 -0.160382 0.128033 0.045774 -0.178095 0.129261 0.121428 -0.187584 
0.188294 0.124613 -0.173021 0.128033 0.045774 -0.178095 0.064411 0.043464 -0.190773 
0.065768 0.124681 -0.198448 0.129261 0.121428 -0.187584 0.188294 0.124613 -0.173021 
0.129261 0.121428 -0.187584 0.130208 0.195349 -0.189329 0.184702 0.189857 -0.178116 
0.129261 0.121428 -0.187584 0.065768 0.124681 -0.198448 0.067814 0.207206 -0.19672 
0.130208 0.195349 -0.189329 0.2451 0.006202 -0.10951 0.180286 -0.016317 -0.140496 
0.189942 0.05461 -0.160382 0.248202 0.077848 -0.142895 0.180286 -0.016317 -0.140496 
0.120448 -0.027798 -0.160677 0.128033 0.045774 -0.178095 0.189942 0.05461 -0.160382 
0.120448 -0.027798 -0.160677 0.06036 -0.03373 -0.173577 0.064411 0.043464 -0.190773 
0.128033 0.045774 -0.178095 0.06036 -0.03373 -0.173577 -0 -0.035484 -0.178188 
-0 0.043482 -0.195554 0.064411 0.043464 -0.190773 0.064411 0.043464 -0.190773 
-0 0.043482 -0.195554 -0 0.127324 -0.202647 0.065768 0.124681 -0.198448 
0.065768 0.124681 -0.198448 -0 0.127324 -0.202647 0 0.215322 -0.198569 
0.067814 0.207206 -0.19672 0.067814 0.207206 -0.19672 0 0.215322 -0.198569 
0 0.316668 -0.169428 0.078725 0.283622 -0.185804 0.130208 0.195349 -0.189329 
0.067814 0.207206 -0.19672 0.078725 0.283622 -0.185804 0.138164 0.262919 -0.184442 
0.184702 0.189857 -0.178116 0.130208 0.195349 -0.189329 0.138164 0.262919 -0.184442 
0.187801 0.247664 -0.177133 0.23054 0.19828 -0.16702 0.184702 0.189857 -0.178116 
0.187801 0.247664 -0.177133 0.221118 0.238423 -0.16989 0.241154 0.141405 -0.159166 
0.188294 0.124613 -0.173021 0.184702 0.189857 -0.178116 0.23054 0.19828 -0.16702 
0.248202 0.077848 -0.142895 0.189942 0.05461 -0.160382 0.188294 0.124613 -0.173021 
0.241154 0.141405 -0.159166 0.064411 0.043464 0.190773 0.128033 0.045774 0.178095 
0.129261 0.121428 0.187584 0.065768 0.12468 0.198448 0.128033 0.045774 0.178095 
0.189942 0.05461 0.160382 0.188294 0.124613 0.173021 0.129261 0.121428 0.187584 
0.065768 0.12468 0.198448 0.129261 0.121428 0.187584 0.130208 0.195349 0.189329 
0.067814 0.207206 0.19672 0.129261 0.121428 0.187584 0.188294 0.124613 0.173021 
0.184702 0.189857 0.178116 0.130208 0.195349 0.189329 -0 -0.035484 0.178188 
0.06036 -0.03373 0.173577 0.064411 0.043464 0.190773 -0 0.043482 0.195554 
0.06036 -0.03373 0.173577 0.120448 -0.027798 0.160677 0.128033 0.045774 0.178095 
0.064411 0.043464 0.190773 0.120448 -0.027798 0.160677 0.180286 -0.016317 0.140496 
0.189942 0.05461 0.160382 0.128033 0.045774 0.178095 0.180286 -0.016317 0.140496 
0.2451 0.006202 0.10951 0.248202 0.077848 0.142895 0.189942 0.05461 0.160382 
0.189942 0.05461 0.160382 0.248202 0.077848 0.142895 0.241154 0.141405 0.159166 
0.188294 0.124613 0.173021 0.188294 0.124613 0.173021 0.241154 0.141405 0.159166 
0.23054 0.19828 0.16702 0.184702 0.189857 0.178116 0.184702 0.189857 0.178116 
0.23054 0.19828 0.16702 0.221118 0.238423 0.16989 0.187801 0.247664 0.177133 
0.130208 0.195349 0.189329 0.184702 0.189857 0.178116 0.187801 0.247664 0.177133 
0.138164 0.262919 0.184442 0.067814 0.207206 0.19672 0.130208 0.195349 0.189329 
0.138164 0.262919 0.184442 0.078725 0.283622 0.185804 -0 0.215322 0.198569 
0.067814 0.207206 0.19672 0.078725 0.283622 0.185804 -0 0.316668 0.169428 
-0 0.127324 0.202647 0.065768 0.12468 0.198448 0.067814 0.207206 0.19672 
-0 0.215322 0.198569 -0 0.043482 0.195554 0.064411 0.043464 0.190773 
0.065768 0.12468 0.198448 -0 0.127324 0.202647 -0.029663 -0.218253 -0.082635 
-0.058757 -0.203252 -0.077389 -0.080362 -0.155208 -0.107275 -0.040869 -0.167196 -0.11591 
-0.058757 -0.203252 -0.077389 -0.085853 -0.184363 -0.067811 -0.116378 -0.139953 -0.092183 
-0.080362 -0.155208 -0.107275 -0.040869 -0.167196 -0.11591 -0.080362 -0.155208 -0.107275 
-0.102964 -0.095836 -0.1361 -0.051928 -0.104844 -0.147512 -0.080362 -0.155208 -0.107275 
-0.116378 -0.139953 -0.092183 -0.151392 -0.083072 -0.117013 -0.102964 -0.095836 -0.1361 
-0 -0.262968 -0.05201 -0.020413 -0.255805 -0.051296 -0.029663 -0.218253 -0.082635 
0 -0.224344 -0.084276 -0.020413 -0.255805 -0.051296 -0.041719 -0.237921 -0.048943 
-0.058757 -0.203252 -0.077389 -0.029663 -0.218253 -0.082635 -0.041719 -0.237921 -0.048943 
-0.06395 -0.214699 -0.044789 -0.085853 -0.184363 -0.067811 -0.058757 -0.203252 -0.077389 
-0.06395 -0.214699 -0.044789 -0.081968 -0.194971 -0.040222 -0.105981 -0.168708 -0.052142 
-0.085853 -0.184363 -0.067811 -0.085853 -0.184363 -0.067811 -0.105981 -0.168708 -0.052142 
-0.143918 -0.126664 -0.06895 -0.116378 -0.139953 -0.092183 -0.116378 -0.139953 -0.092183 
-0.143918 -0.126664 -0.06895 -0.190636 -0.071615 -0.087892 -0.151392 -0.083072 -0.117013 
-0.151392 -0.083072 -0.117013 -0.190636 -0.071615 -0.087892 -0.2451 0.006202 -0.10951 
-0.180286 -0.016317 -0.140496 -0.102964 -0.095836 -0.1361 -0.151392 -0.083072 -0.117013 
-0.180286 -0.016317 -0.140496 -0.120448 -0.027798 -0.160677 -0.051928 -0.104844 -0.147512 
-0.102964 -0.095836 -0.1361 -0.120448 -0.027798 -0.160677 -0.06036 -0.03373 -0.173577 
0 -0.108161 -0.15138 -0.051928 -0.104844 -0.147512 -0.06036 -0.03373 -0.173577 
-0 -0.035484 -0.178188 -0 -0.171972 -0.118703 -0.040869 -0.167196 -0.11591 
-0.051928 -0.104844 -0.147512 0 -0.108161 -0.15138 0 -0.224344 -0.084276 
-0.029663 -0.218253 -0.082635 -0.040869 -0.167196 -0.11591 -0 -0.171972 -0.118703 
-0.315619 0.055364 0.054483 -0.355918 0.117682 0.050894 -0.358148 0.111956 0 
-0.318407 0.049726 0 -0.355918 0.117682 0.050894 -0.383004 0.174985 0.045755 
-0.386004 0.171479 -0 -0.358148 0.111956 0 -0.318407 0.049726 0 
-0.358148 0.111956 0 -0.355918 0.117682 -0.050894 -0.31562 0.055364 -0.054483 
-0.358148 0.111956 0 -0.386004 0.171479 -0 -0.383004 0.174985 -0.045755 
-0.355918 0.117682 -0.050894 -0.2451 0.006202 0.10951 -0.307657 0.0776 0.101176 
-0.315619 0.055364 0.054483 -0.265122 -0.008453 0.054233 -0.307657 0.0776 0.101176 
-0.348976 0.137811 0.093703 -0.355918 0.117682 0.050894 -0.315619 0.055364 0.054483 
-0.348976 0.137811 0.093703 -0.375709 0.189717 0.083373 -0.383004 0.174985 0.045755 
-0.355918 0.117682 0.050894 -0.375709 0.189717 0.083373 -0.388586 0.225078 0.072186 
-0.396769 0.22662 0.04273 -0.383004 0.174985 0.045755 -0.383004 0.174985 0.045755 
-0.396769 0.22662 0.04273 -0.40092 0.227453 -0 -0.386004 0.171479 -0 
-0.386004 0.171479 -0 -0.40092 0.227453 -0 -0.396769 0.22662 -0.04273 
-0.383004 0.174985 -0.045755 -0.383004 0.174985 -0.045755 -0.396769 0.22662 -0.04273 
-0.388586 0.225078 -0.072186 -0.375709 0.189717 -0.083373 -0.355918 0.117682 -0.050894 
-0.383004 0.174985 -0.045755 -0.375709 0.189717 -0.083373 -0.348976 0.137811 -0.093703 
-0.31562 0.055364 -0.054483 -0.355918 0.117682 -0.050894 -0.348976 0.137811 -0.093703 
-0.307657 0.0776 -0.101176 -0.265122 -0.008453 -0.054233 -0.31562 0.055364 -0.054483 
-0.307657 0.0776 -0.101176 -0.2451 0.006202 -0.10951 -0.269642 -0.011544 -0 
-0.318407 0.049726 0 -0.31562 0.055364 -0.054483 -0.265122 -0.008453 -0.054233 
-0.265122 -0.008453 0.054233 -0.315619 0.055364 0.054483 -0.318407 0.049726 0 
-0.269642 -0.011544 -0 -0.151392 -0.083072 0.117013 -0.116378 -0.139953 0.092183 
-0.080362 -0.155208 0.107275 -0.102964 -0.095836 0.1361 -0.116378 -0.139953 0.092183 
-0.085853 -0.184363 0.067811 -0.058757 -0.203252 0.077389 -0.080362 -0.155208 0.107275 
-0.102964 -0.095836 0.1361 -0.080362 -0.155208 0.107275 -0.040869 -0.167196 0.11591 
-0.051928 -0.104844 0.147512 -0.080362 -0.155208 0.107275 -0.058757 -0.203252 0.077389 
-0.029663 -0.218253 0.082635 -0.040869 -0.167196 0.11591 -0.2451 0.006202 0.10951 
-0.190636 -0.071615 0.087892 -0.151392 -0.083072 0.117013 -0.180286 -0.016317 0.140496 
-0.190636 -0.071615 0.087892 -0.143918 -0.126664 0.06895 -0.116378 -0.139953 0.092183 
-0.151392 -0.083072 0.117013 -0.143918 -0.126664 0.06895 -0.105981 -0.168708 0.052142 
-0.085853 -0.184363 0.067811 -0.116378 -0.139953 0.092183 -0.105981 -0.168708 0.052142 
-0.081968 -0.194971 0.040222 -0.06395 -0.214699 0.044788 -0.085853 -0.184363 0.067811 
-0.085853 -0.184363 0.067811 -0.06395 -0.214699 0.044788 -0.041719 -0.237921 0.048943 
-0.058757 -0.203252 0.077389 -0.058757 -0.203252 0.077389 -0.041719 -0.237921 0.048943 
-0.020413 -0.255805 0.051296 -0.029663 -0.218253 0.082635 -0.029663 -0.218253 0.082635 
-0.020413 -0.255805 0.051296 -0 -0.262968 0.05201 -0 -0.224344 0.084276 
-0.040869 -0.167196 0.11591 -0.029663 -0.218253 0.082635 -0 -0.224344 0.084276 
-0 -0.171972 0.118703 -0.051928 -0.104844 0.147512 -0.040869 -0.167196 0.11591 
-0 -0.171972 0.118703 -0 -0.108161 0.15138 -0.06036 -0.03373 0.173577 
-0.051928 -0.104844 0.147512 -0 -0.108161 0.15138 -0 -0.035484 0.178188 
-0.120448 -0.027798 0.160677 -0.102964 -0.095836 0.1361 -0.051928 -0.104844 0.147512 
-0.06036 -0.03373 0.173577 -0.180286 -0.016317 0.140496 -0.151392 -0.083072 0.117013 
-0.102964 -0.095836 0.1361 -0.120448 -0.027798 0.160677 -0.114335 -0.162246 -0.028376 
-0.115794 -0.160779 -0 -0.162853 -0.117775 -0 -0.158825 -0.119765 -0.03692 
-0.115794 -0.160779 -0 -0.114335 -0.162246 0.028376 -0.158825 -0.119765 0.03692 
-0.162853 -0.117775 -0 -0.158825 -0.119765 -0.03692 -0.162853 -0.117775 -0 
-0.215857 -0.067873 0 -0.210733 -0.068333 -0.046701 -0.162853 -0.117775 -0 
-0.158825 -0.119765 0.03692 -0.210733 -0.068333 0.046701 -0.215857 -0.067873 0 
-0.081968 -0.194971 -0.040222 -0.07911 -0.197911 -0.023028 -0.114335 -0.162246 -0.028376 
-0.105981 -0.168708 -0.052142 -0.07911 -0.197911 -0.023028 -0.077408 -0.199024 -0 
-0.115794 -0.160779 -0 -0.114335 -0.162246 -0.028376 -0.077408 -0.199024 -0 
-0.07911 -0.197911 0.023028 -0.114335 -0.162246 0.028376 -0.115794 -0.160779 -0 
-0.07911 -0.197911 0.023028 -0.081968 -0.194971 0.040222 -0.105981 -0.168708 0.052142 
-0.114335 -0.162246 0.028376 -0.114335 -0.162246 0.028376 -0.105981 -0.168708 0.052142 
-0.143918 -0.126664 0.06895 -0.158825 -0.119765 0.03692 -0.158825 -0.119765 0.03692 
-0.143918 -0.126664 0.06895 -0.190636 -0.071615 0.087892 -0.210733 -0.068333 0.046701 
-0.210733 -0.068333 0.046701 -0.190636 -0.071615 0.087892 -0.2451 0.006202 0.10951 
-0.265122 -0.008453 0.054233 -0.215857 -0.067873 0 -0.210733 -0.068333 0.046701 
-0.265122 -0.008453 0.054233 -0.269642 -0.011544 -0 -0.210733 -0.068333 -0.046701 
-0.215857 -0.067873 0 -0.269642 -0.011544 -0 -0.265122 -0.008453 -0.054233 
-0.190636 -0.071615 -0.087892 -0.210733 -0.068333 -0.046701 -0.265122 -0.008453 -0.054233 
-0.2451 0.006202 -0.10951 -0.143918 -0.126664 -0.06895 -0.158825 -0.119765 -0.03692 
-0.210733 -0.068333 -0.046701 -0.190636 -0.071615 -0.087892 -0.105981 -0.168708 -0.052142 
-0.114335 -0.162246 -0.028376 -0.158825 -0.119765 -0.03692 -0.143918 -0.126664 -0.06895 
-0.268565 0.227333 0.158089 -0.301247 0.267879 0.147099 -0.323592 0.220471 0.138474 
-0.286467 0.175988 0.149024 -0.301247 0.267879 0.147099 -0.328658 0.30932 0.128831 
-0.352267 0.264506 0.121759 -0.323592 0.220471 0.138474 -0.286467 0.175988 0.149024 
-0.323592 0.220471 0.138474 -0.338798 0.174332 0.12217 -0.298962 0.122384 0.131835 
-0.323592 0.220471 0.138474 -0.352267 0.264506 0.121759 -0.366839 0.221883 0.107736 
-0.338798 0.174332 0.12217 -0.221118 0.238423 0.16989 -0.242728 0.269395 0.164003 
-0.268565 0.227333 0.158089 -0.23054 0.19828 0.16702 -0.242728 0.269395 0.164003 
-0.270147 0.310485 0.152524 -0.301247 0.267879 0.147099 -0.268565 0.227333 0.158089 
-0.270147 0.310485 0.152524 -0.295801 0.350807 0.132687 -0.328658 0.30932 0.128831 
-0.301247 0.267879 0.147099 -0.295801 0.350807 0.132687 -0.316059 0.383678 0.100604 
-0.349329 0.343707 0.098456 -0.328658 0.30932 0.128831 -0.328658 0.30932 0.128831 
-0.349329 0.343707 0.098456 -0.372831 0.300038 0.093565 -0.352267 0.264506 0.121759 
-0.352267 0.264506 0.121759 -0.372831 0.300038 0.093565 -0.385341 0.257159 0.083724 
-0.366839 0.221883 0.107736 -0.366839 0.221883 0.107736 -0.385341 0.257159 0.083724 
-0.388586 0.225078 0.072186 -0.375709 0.189717 0.083373 -0.338798 0.174332 0.12217 
-0.366839 0.221883 0.107736 -0.375709 0.189717 0.083373 -0.348976 0.137811 0.093703 
-0.298962 0.122384 0.131835 -0.338798 0.174332 0.12217 -0.348976 0.137811 0.093703 
-0.307657 0.0776 0.101176 -0.248202 0.077848 0.142895 -0.298962 0.122384 0.131835 
-0.307657 0.0776 0.101176 -0.2451 0.006202 0.10951 -0.241154 0.141405 0.159166 
-0.286467 0.175988 0.149024 -0.298962 0.122384 0.131835 -0.248202 0.077848 0.142895 
-0.23054 0.19828 0.16702 -0.268565 0.227333 0.158089 -0.286467 0.175988 0.149024 
-0.241154 0.141405 0.159166 -0.397421 0.274704 -0.046115 -0.401972 0.279533 -0 
-0.38996 0.327756 -0 -0.38556 0.321093 -0.050949 -0.401972 0.279533 -0 
-0.397421 0.274704 0.046115 -0.38556 0.321093 0.050949 -0.38996 0.327756 -0 
-0.38556 0.321093 -0.050949 -0.38996 0.327756 -0 -0.366182 0.371985 -0 
-0.361966 0.364956 -0.05344 -0.38996 0.327756 -0 -0.38556 0.321093 0.050949 
-0.361966 0.364956 0.05344 -0.366182 0.371985 -0 -0.388586 0.225078 -0.072186 
-0.396769 0.22662 -0.04273 -0.397421 0.274704 -0.046115 -0.385341 0.257159 -0.083724 
-0.396769 0.22662 -0.04273 -0.40092 0.227453 -0 -0.401972 0.279533 -0 
-0.397421 0.274704 -0.046115 -0.40092 0.227453 -0 -0.396769 0.22662 0.04273 
-0.397421 0.274704 0.046115 -0.401972 0.279533 -0 -0.396769 0.22662 0.04273 
-0.388586 0.225078 0.072186 -0.385341 0.257159 0.083724 -0.397421 0.274704 0.046115 
-0.397421 0.274704 0.046115 -0.385341 0.257159 0.083724 -0.372831 0.300038 0.093565 
-0.38556 0.321093 0.050949 -0.38556 0.321093 0.050949 -0.372831 0.300038 0.093565 
-0.349329 0.343707 0.098456 -0.361966 0.364956 0.05344 -0.361966 0.364956 0.05344 
-0.349329 0.343707 0.098456 -0.316059 0.383678 0.100604 -0.32856 0.404048 0.054356 
-0.366182 0.371985 -0 -0.361966 0.364956 0.05344 -0.32856 0.404048 0.054356 
-0.332705 0.41082 -0 -0.361966 0.364956 -0.05344 -0.366182 0.371985 -0 
-0.332705 0.41082 -0 -0.32856 0.404048 -0.054356 -0.349329 0.343707 -0.098456 
-0.361966 0.364956 -0.05344 -0.32856 0.404048 -0.054356 -0.316059 0.383678 -0.100604 
-0.372831 0.300038 -0.093565 -0.38556 0.321093 -0.050949 -0.361966 0.364956 -0.05344 
-0.349329 0.343707 -0.098456 -0.385341 0.257159 -0.083724 -0.397421 0.274704 -0.046115 
-0.38556 0.321093 -0.050949 -0.372831 0.300038 -0.093565 -0.287996 0.435908 -0.054859 
-0.292085 0.442403 -0 -0.247966 0.464124 -0 -0.244423 0.457821 -0.053869 
-0.292085 0.442403 -0 -0.287996 0.435908 0.054859 -0.244423 0.457821 0.053869 
-0.247966 0.464124 -0 -0.244423 0.457821 -0.053869 -0.247966 0.464124 -0 
-0.203816 0.473451 -0 -0.201946 0.467419 -0.050718 -0.247966 0.464124 -0 
-0.244423 0.457821 0.053869 -0.201946 0.467419 0.050718 -0.203816 0.473451 -0 
-0.316059 0.383678 -0.100604 -0.32856 0.404048 -0.054356 -0.287996 0.435908 -0.054859 
-0.275516 0.416415 -0.102064 -0.32856 0.404048 -0.054356 -0.332705 0.41082 -0 
-0.292085 0.442403 -0 -0.287996 0.435908 -0.054859 -0.332705 0.41082 -0 
-0.32856 0.404048 0.054356 -0.287996 0.435908 0.054859 -0.292085 0.442403 -0 
-0.32856 0.404048 0.054356 -0.316059 0.383678 0.100604 -0.275516 0.416414 0.102064 
-0.287996 0.435908 0.054859 -0.287996 0.435908 0.054859 -0.275516 0.416414 0.102064 
-0.232615 0.439334 0.100604 -0.244423 0.457821 0.053869 -0.244423 0.457821 0.053869 
-0.232615 0.439334 0.100604 -0.193002 0.450879 0.093687 -0.201946 0.467419 0.050718 
-0.201946 0.467419 0.050718 -0.193002 0.450879 0.093687 -0.165323 0.452954 0.083574 
-0.162805 0.463391 0.04947 -0.203816 0.473451 -0 -0.201946 0.467419 0.050718 
-0.162805 0.463391 0.04947 -0.161543 0.468574 -0 -0.201946 0.467419 -0.050718 
-0.203816 0.473451 -0 -0.161543 0.468574 -0 -0.162805 0.463391 -0.04947 
-0.193002 0.450879 -0.093687 -0.201946 0.467419 -0.050718 -0.162805 0.463391 -0.04947 
-0.165323 0.452954 -0.083574 -0.232615 0.439334 -0.100604 -0.244423 0.457821 -0.053869 
-0.201946 0.467419 -0.050718 -0.193002 0.450879 -0.093687 -0.275516 0.416415 -0.102064 
-0.287996 0.435908 -0.054859 -0.244423 0.457821 -0.053869 -0.232615 0.439334 -0.100604 
-0.205185 0.298234 -0.170656 -0.230217 0.344158 -0.157628 -0.185552 0.369798 -0.158392 
-0.158456 0.321014 -0.174394 -0.230217 0.344158 -0.157628 -0.255226 0.384763 -0.135835 
-0.21194 0.409623 -0.134871 -0.185552 0.369798 -0.158392 -0.158456 0.321014 -0.174394 
-0.185552 0.369798 -0.158392 -0.141835 0.389468 -0.148588 -0.107734 0.342852 -0.168547 
-0.185552 0.369798 -0.158392 -0.21194 0.409623 -0.134871 -0.171865 0.425354 -0.124908 
-0.141835 0.389468 -0.148588 -0.221118 0.238423 -0.16989 -0.242728 0.269395 -0.164003 
-0.205185 0.298234 -0.170656 -0.187801 0.247664 -0.177133 -0.242728 0.269395 -0.164003 
-0.270147 0.310485 -0.152524 -0.230217 0.344158 -0.157628 -0.205185 0.298234 -0.170656 
-0.270147 0.310485 -0.152524 -0.295801 0.350807 -0.132687 -0.255226 0.384763 -0.135835 
-0.230217 0.344158 -0.157628 -0.295801 0.350807 -0.132687 -0.316059 0.383678 -0.100604 
-0.275516 0.416415 -0.102064 -0.255226 0.384763 -0.135835 -0.255226 0.384763 -0.135835 
-0.275516 0.416415 -0.102064 -0.232615 0.439334 -0.100604 -0.21194 0.409623 -0.134871 
-0.21194 0.409623 -0.134871 -0.232615 0.439334 -0.100604 -0.193002 0.450879 -0.093687 
-0.171865 0.425354 -0.124908 -0.171865 0.425354 -0.124908 -0.193002 0.450879 -0.093687 
-0.165323 0.452954 -0.083574 -0.141647 0.435686 -0.100232 -0.141835 0.389468 -0.148588 
-0.171865 0.425354 -0.124908 -0.141647 0.435686 -0.100232 -0.107218 0.404811 -0.119802 
-0.107734 0.342852 -0.168547 -0.141835 0.389468 -0.148588 -0.107218 0.404811 -0.119802 
-0.064893 0.364927 -0.140603 -0.078725 0.283622 -0.185804 -0.107734 0.342852 -0.168547 
-0.064893 0.364927 -0.140603 0 0.316668 -0.169428 -0.138164 0.262919 -0.184442 
-0.158456 0.321014 -0.174394 -0.107734 0.342852 -0.168547 -0.078725 0.283622 -0.185804 
-0.187801 0.247664 -0.177133 -0.205185 0.298234 -0.170656 -0.158456 0.321014 -0.174394 
-0.138164 0.262919 -0.184442 -0.298962 0.122384 -0.131835 -0.338798 0.174332 -0.12217 
-0.323592 0.220471 -0.138474 -0.286467 0.175988 -0.149024 -0.338798 0.174332 -0.12217 
-0.366839 0.221883 -0.107736 -0.352267 0.264506 -0.121759 -0.323592 0.220471 -0.138474 
-0.286467 0.175988 -0.149024 -0.323592 0.220471 -0.138474 -0.301247 0.267879 -0.147099 
-0.268565 0.227333 -0.158089 -0.323592 0.220471 -0.138474 -0.352267 0.264506 -0.121759 
-0.328658 0.30932 -0.128831 -0.301247 0.267879 -0.147099 -0.2451 0.006202 -0.10951 
-0.307657 0.0776 -0.101176 -0.298962 0.122384 -0.131835 -0.248202 0.077848 -0.142895 
-0.307657 0.0776 -0.101176 -0.348976 0.137811 -0.093703 -0.338798 0.174332 -0.12217 
-0.298962 0.122384 -0.131835 -0.348976 0.137811 -0.093703 -0.375709 0.189717 -0.083373 
-0.366839 0.221883 -0.107736 -0.338798 0.174332 -0.12217 -0.375709 0.189717 -0.083373 
-0.388586 0.225078 -0.072186 -0.385341 0.257159 -0.083724 -0.366839 0.221883 -0.107736 
-0.366839 0.221883 -0.107736 -0.385341 0.257159 -0.083724 -0.372831 0.300038 -0.093565 
-0.352267 0.264506 -0.121759 -0.352267 0.264506 -0.121759 -0.372831 0.300038 -0.093565 
-0.349329 0.343707 -0.098456 -0.328658 0.30932 -0.128831 -0.328658 0.30932 -0.128831 
-0.349329 0.343707 -0.098456 -0.316059 0.383678 -0.100604 -0.295801 0.350807 -0.132687 
-0.301247 0.267879 -0.147099 -0.328658 0.30932 -0.128831 -0.295801 0.350807 -0.132687 
-0.270147 0.310485 -0.152524 -0.268565 0.227333 -0.158089 -0.301247 0.267879 -0.147099 
-0.270147 0.310485 -0.152524 -0.242728 0.269395 -0.164003 -0.23054 0.19828 -0.16702 
-0.268565 0.227333 -0.158089 -0.242728 0.269395 -0.164003 -0.221118 0.238423 -0.16989 
-0.241154 0.141405 -0.159166 -0.286467 0.175988 -0.149024 -0.268565 0.227333 -0.158089 
-0.23054 0.19828 -0.16702 -0.248202 0.077848 -0.142895 -0.298962 0.122384 -0.131835 
-0.286467 0.175988 -0.149024 -0.241154 0.141405 -0.159166 -0.046044 0.384662 -0.078612 
-0.088171 0.416357 -0.066864 -0.082684 0.42097 -0 -0.041841 0.392363 0 
-0.088171 0.416357 -0.066864 -0.126229 0.445008 -0.056007 -0.121885 0.449245 -0 
-0.082684 0.42097 -0 -0.041841 0.392363 0 -0.082684 0.42097 -0 
-0.088171 0.416357 0.066864 -0.046044 0.384662 0.078612 -0.082684 0.42097 -0 
-0.121885 0.449245 -0 -0.126229 0.445008 0.056007 -0.088171 0.416357 0.066864 
0 0.316668 -0.169428 -0.064893 0.364927 -0.140603 -0.046044 0.384662 -0.078612 
-0 0.368167 -0.085808 -0.064893 0.364927 -0.140603 -0.107218 0.404811 -0.119802 
-0.088171 0.416357 -0.066864 -0.046044 0.384662 -0.078612 -0.107218 0.404811 -0.119802 
-0.141647 0.435686 -0.100232 -0.126229 0.445008 -0.056007 -0.088171 0.416357 -0.066864 
-0.141647 0.435686 -0.100232 -0.165323 0.452954 -0.083574 -0.162805 0.463391 -0.04947 
-0.126229 0.445008 -0.056007 -0.126229 0.445008 -0.056007 -0.162805 0.463391 -0.04947 
-0.161543 0.468574 -0 -0.121885 0.449245 -0 -0.121885 0.449245 -0 
-0.161543 0.468574 -0 -0.162805 0.463391 0.04947 -0.126229 0.445008 0.056007 
-0.126229 0.445008 0.056007 -0.162805 0.463391 0.04947 -0.165323 0.452954 0.083574 
-0.141647 0.435686 0.100232 -0.088171 0.416357 0.066864 -0.126229 0.445008 0.056007 
-0.141647 0.435686 0.100232 -0.107218 0.404811 0.119802 -0.046044 0.384662 0.078612 
-0.088171 0.416357 0.066864 -0.107218 0.404811 0.119802 -0.064893 0.364927 0.140603 
-0 0.368167 0.085808 -0.046044 0.384662 0.078612 -0.064893 0.364927 0.140603 
-0 0.316668 0.169428 -0 0.379014 0 -0.041841 0.392363 0 
-0.046044 0.384662 0.078612 -0 0.368167 0.085808 -0 0.368167 -0.085808 
-0.046044 0.384662 -0.078612 -0.041841 0.392363 0 -0 0.379014 0 
-0.107734 0.342852 0.168547 -0.141835 0.389468 0.148588 -0.185552 0.369798 0.158392 
-0.158456 0.321014 0.174394 -0.141835 0.389468 0.148588 -0.171865 0.425354 0.124908 
-0.21194 0.409623 0.134871 -0.185552 0.369798 0.158392 -0.158456 0.321014 0.174394 
-0.185552 0.369798 0.158392 -0.230217 0.344158 0.157628 -0.205185 0.298234 0.170655 
-0.185552 0.369798 0.158392 -0.21194 0.409623 0.134871 -0.255226 0.384763 0.135835 
-0.230217 0.344158 0.157628 -0 0.316668 0.169428 -0.064893 0.364927 0.140603 
-0.107734 0.342852 0.168547 -0.078725 0.283622 0.185804 -0.064893 0.364927 0.140603 
-0.107218 0.404811 0.119802 -0.141835 0.389468 0.148588 -0.107734 0.342852 0.168547 
-0.107218 0.404811 0.119802 -0.141647 0.435686 0.100232 -0.171865 0.425354 0.124908 
-0.141835 0.389468 0.148588 -0.141647 0.435686 0.100232 -0.165323 0.452954 0.083574 
-0.193002 0.450879 0.093687 -0.171865 0.425354 0.124908 -0.171865 0.425354 0.124908 
-0.193002 0.450879 0.093687 -0.232615 0.439334 0.100604 -0.21194 0.409623 0.134871 
-0.21194 0.409623 0.134871 -0.232615 0.439334 0.100604 -0.275516 0.416414 0.102064 
-0.255226 0.384763 0.135835 -0.255226 0.384763 0.135835 -0.275516 0.416414 0.102064 
-0.316059 0.383678 0.100604 -0.295801 0.350807 0.132687 -0.230217 0.344158 0.157628 
-0.255226 0.384763 0.135835 -0.295801 0.350807 0.132687 -0.270147 0.310485 0.152524 
-0.205185 0.298234 0.170655 -0.230217 0.344158 0.157628 -0.270147 0.310485 0.152524 
-0.242728 0.269395 0.164003 -0.187801 0.247664 0.177133 -0.205185 0.298234 0.170655 
-0.242728 0.269395 0.164003 -0.221118 0.238423 0.16989 -0.138164 0.262919 0.184442 
-0.158456 0.321014 0.174394 -0.205185 0.298234 0.170655 -0.187801 0.247664 0.177133 
-0.078725 0.283622 0.185804 -0.107734 0.342852 0.168547 -0.158456 0.321014 0.174394 
-0.138164 0.262919 0.184442 -0.014736 -0.278178 -0.024307 -0.012855 -0.285264 0 
-0.028286 -0.264073 0 -0.031567 -0.257951 -0.023535 -0.012855 -0.285264 0 
-0.014736 -0.278178 0.024307 -0.031567 -0.257951 0.023535 -0.028286 -0.264073 0 
-0.031567 -0.257951 -0.023535 -0.028286 -0.264073 0 -0.048898 -0.234204 0 
-0.052437 -0.230043 -0.02241 -0.028286 -0.264073 0 -0.031567 -0.257951 0.023535 
-0.052437 -0.230043 0.02241 -0.048898 -0.234204 0 -0 -0.262968 -0.05201 
-0 -0.286048 -0.02453 -0.014736 -0.278178 -0.024307 -0.020413 -0.255805 -0.051296 
-0 -0.286048 -0.02453 -0 -0.293395 0 -0.012855 -0.285264 0 
-0.014736 -0.278178 -0.024307 -0 -0.293395 0 -0 -0.286048 0.02453 
-0.014736 -0.278178 0.024307 -0.012855 -0.285264 0 -0 -0.286048 0.02453 
-0 -0.262968 0.05201 -0.020413 -0.255805 0.051296 -0.014736 -0.278178 0.024307 
-0.014736 -0.278178 0.024307 -0.020413 -0.255805 0.051296 -0.041719 -0.237921 0.048943 
-0.031567 -0.257951 0.023535 -0.031567 -0.257951 0.023535 -0.041719 -0.237921 0.048943 
-0.06395 -0.214699 0.044788 -0.052437 -0.230043 0.02241 -0.052437 -0.230043 0.02241 
-0.06395 -0.214699 0.044788 -0.081968 -0.194971 0.040222 -0.07911 -0.197911 0.023028 
-0.048898 -0.234204 0 -0.052437 -0.230043 0.02241 -0.07911 -0.197911 0.023028 
-0.077408 -0.199024 -0 -0.052437 -0.230043 -0.02241 -0.048898 -0.234204 0 
-0.077408 -0.199024 -0 -0.07911 -0.197911 -0.023028 -0.06395 -0.214699 -0.044789 
-0.052437 -0.230043 -0.02241 -0.07911 -0.197911 -0.023028 -0.081968 -0.194971 -0.040222 
-0.041719 -0.237921 -0.048943 -0.031567 -0.257951 -0.023535 -0.052437 -0.230043 -0.02241 
-0.06395 -0.214699 -0.044789 -0.020413 -0.255805 -0.051296 -0.014736 -0.278178 -0.024307 
-0.031567 -0.257951 -0.023535 -0.041719 -0.237921 -0.048943 -0.189942 0.05461 -0.160382 
-0.188294 0.124613 -0.173021 -0.129261 0.121428 -0.187584 -0.128033 0.045774 -0.178095 
-0.188294 0.124613 -0.173021 -0.184702 0.189857 -0.178116 -0.130208 0.195349 -0.189329 
-0.129261 0.121428 -0.187584 -0.128033 0.045774 -0.178095 -0.129261 0.121428 -0.187584 
-0.065768 0.124681 -0.198448 -0.064411 0.043464 -0.190773 -0.129261 0.121428 -0.187584 
-0.130208 0.195349 -0.189329 -0.067814 0.207206 -0.19672 -0.065768 0.124681 -0.198448 
-0.2451 0.006202 -0.10951 -0.248202 0.077848 -0.142895 -0.189942 0.05461 -0.160382 
-0.180286 -0.016317 -0.140496 -0.248202 0.077848 -0.142895 -0.241154 0.141405 -0.159166 
-0.188294 0.124613 -0.173021 -0.189942 0.05461 -0.160382 -0.241154 0.141405 -0.159166 
-0.23054 0.19828 -0.16702 -0.184702 0.189857 -0.178116 -0.188294 0.124613 -0.173021 
-0.23054 0.19828 -0.16702 -0.221118 0.238423 -0.16989 -0.187801 0.247664 -0.177133 
-0.184702 0.189857 -0.178116 -0.184702 0.189857 -0.178116 -0.187801 0.247664 -0.177133 
-0.138164 0.262919 -0.184442 -0.130208 0.195349 -0.189329 -0.130208 0.195349 -0.189329 
-0.138164 0.262919 -0.184442 -0.078725 0.283622 -0.185804 -0.067814 0.207206 -0.19672 
-0.067814 0.207206 -0.19672 -0.078725 0.283622 -0.185804 0 0.316668 -0.169428 
0 0.215322 -0.198569 -0.065768 0.124681 -0.198448 -0.067814 0.207206 -0.19672 
0 0.215322 -0.198569 -0 0.127324 -0.202647 -0.064411 0.043464 -0.190773 
-0.065768 0.124681 -0.198448 -0 0.127324 -0.202647 -0 0.043482 -0.195554 
-0.06036 -0.03373 -0.173577 -0.064411 0.043464 -0.190773 -0 0.043482 -0.195554 
-0 -0.035484 -0.178188 -0.120448 -0.027798 -0.160677 -0.128033 0.045774 -0.178095 
-0.064411 0.043464 -0.190773 -0.06036 -0.03373 -0.173577 -0.180286 -0.016317 -0.140496 
-0.189942 0.05461 -0.160382 -0.128033 0.045774 -0.178095 -0.120448 -0.027798 -0.160677 
-0.064411 0.043464 0.190773 -0.065768 0.12468 0.198448 -0.12926 0.121428 0.187584 
-0.128033 0.045774 0.178095 -0.065768 0.12468 0.198448 -0.067814 0.207206 0.19672 
-0.130208 0.195349 0.189329 -0.12926 0.121428 0.187584 -0.128033 0.045774 0.178095 
-0.12926 0.121428 0.187584 -0.188294 0.124613 0.173021 -0.189942 0.05461 0.160382 
-0.12926 0.121428 0.187584 -0.130208 0.195349 0.189329 -0.184702 0.189857 0.178116 
-0.188294 0.124613 0.173021 -0 -0.035484 0.178188 -0 0.043482 0.195554 
-0.064411 0.043464 0.190773 -0.06036 -0.03373 0.173577 -0 0.043482 0.195554 
-0 0.127324 0.202647 -0.065768 0.12468 0.198448 -0.064411 0.043464 0.190773 
-0 0.127324 0.202647 -0 0.215322 0.198569 -0.067814 0.207206 0.19672 
-0.065768 0.12468 0.198448 -0 0.215322 0.198569 -0 0.316668 0.169428 
-0.078725 0.283622 0.185804 -0.067814 0.207206 0.19672 -0.067814 0.207206 0.19672 
-0.078725 0.283622 0.185804 -0.138164 0.262919 0.184442 -0.130208 0.195349 0.189329 
-0.130208 0.195349 0.189329 -0.138164 0.262919 0.184442 -0.187801 0.247664 0.177133 
-0.184702 0.189857 0.178116 -0.184702 0.189857 0.178116 -0.187801 0.247664 0.177133 
-0.221118 0.238423 0.16989 -0.23054 0.19828 0.16702 -0.188294 0.124613 0.173021 
-0.184702 0.189857 0.178116 -0.23054 0.19828 0.16702 -0.241154 0.141405 0.159166 
-0.189942 0.05461 0.160382 -0.188294 0.124613 0.173021 -0.241154 0.141405 0.159166 
-0.248202 0.077848 0.142895 -0.180286 -0.016317 0.140496 -0.189942 0.05461 0.160382 
-0.248202 0.077848 0.142895 -0.2451 0.006202 0.10951 -0.120448 -0.027798 0.160677 
-0.128033 0.045774 0.178095 -0.189942 0.05461 0.160382 -0.180286 -0.016317 0.140496 
-0.06036 -0.03373 0.173577 -0.064411 0.043464 0.190773 -0.128033 0.045774 0.178095 
-0.120448 -0.027798 0.160677 
CELLS 896 3584
3 2 3 1 
3 0 1 3 
3 6 7 5 
3 4 5 7 
3 10 11 9 
3 8 9 11 
3 14 15 13 
3 12 13 15 
3 18 19 17 
3 16 17 19 
3 22 23 21 
3 20 21 23 
3 26 27 25 
3 24 25 27 
3 30 31 29 
3 28 29 31 
3 34 35 33 
3 32 33 35 
3 38 39 37 
3 36 37 39 
3 42 43 41 
3 41 43 40 
3 46 47 45 
3 44 45 47 
3 50 51 49 
3 48 49 51 
3 54 55 53 
3 52 53 55 
3 58 59 57 
3 56 57 59 
3 62 63 61 
3 60 61 63 
3 65 66 64 
3 67 64 66 
3 68 69 71 
3 70 71 69 
3 73 74 72 
3 75 72 74 
3 76 77 79 
3 78 79 77 
3 80 81 83 
3 82 83 81 
3 87 84 86 
3 85 86 84 
3 90 91 89 
3 88 89 91 
3 93 94 92 
3 95 92 94 
3 96 97 99 
3 98 99 97 
3 100 101 103 
3 102 103 101 
3 104 105 107 
3 106 107 105 
3 108 109 111 
3 110 111 109 
3 113 114 112 
3 115 112 114 
3 117 118 116 
3 119 116 118 
3 121 122 120 
3 123 120 122 
3 125 126 124 
3 127 124 126 
3 128 129 131 
3 130 131 129 
3 132 133 135 
3 134 135 133 
3 136 137 139 
3 138 139 137 
3 140 141 143 
3 142 143 141 
3 144 145 147 
3 145 146 147 
3 148 149 151 
3 150 151 149 
3 152 153 155 
3 154 155 153 
3 156 157 159 
3 158 159 157 
3 160 161 163 
3 162 163 161 
3 164 165 167 
3 166 167 165 
3 168 169 171 
3 170 171 169 
3 172 173 175 
3 174 175 173 
3 176 177 179 
3 177 178 179 
3 180 181 183 
3 182 183 181 
3 184 185 187 
3 186 187 185 
3 188 189 191 
3 190 191 189 
3 194 195 193 
3 192 193 195 
3 198 199 197 
3 196 197 199 
3 201 202 200 
3 203 200 202 
3 205 206 204 
3 207 204 206 
3 210 211 209 
3 208 209 211 
3 214 215 213 
3 212 213 215 
3 218 219 217 
3 216 217 219 
3 221 222 220 
3 223 220 222 
3 225 226 224 
3 226 227 224 
3 230 231 229 
3 229 231 228 
3 234 235 233 
3 232 233 235 
3 237 238 236 
3 239 236 238 
3 241 242 240 
3 243 240 242 
3 245 246 244 
3 247 244 246 
3 250 251 249 
3 248 249 251 
3 253 254 252 
3 255 252 254 
3 257 258 256 
3 259 256 258 
3 263 260 262 
3 261 262 260 
3 265 266 264 
3 267 264 266 
3 269 270 268 
3 271 268 270 
3 273 274 272 
3 275 272 274 
3 277 278 276 
3 279 276 278 
3 281 282 280 
3 283 280 282 
3 287 284 286 
3 285 286 284 
3 289 290 288 
3 290 291 288 
3 293 294 292 
3 295 292 294 
3 297 298 296 
3 296 298 299 
3 301 302 300 
3 303 300 302 
3 305 306 304 
3 307 304 306 
3 309 310 308 
3 311 308 310 
3 313 314 312 
3 315 312 314 
3 319 316 318 
3 317 318 316 
3 322 323 321 
3 320 321 323 
3 326 327 325 
3 324 325 327 
3 329 330 328 
3 331 328 330 
3 333 334 332 
3 335 332 334 
3 338 339 337 
3 336 337 339 
3 342 343 341 
3 340 341 343 
3 346 347 345 
3 344 345 347 
3 350 351 349 
3 349 351 348 
3 354 355 353 
3 352 353 355 
3 357 358 356 
3 359 356 358 
3 361 362 360 
3 360 362 363 
3 365 366 364 
3 367 364 366 
3 369 370 368 
3 371 368 370 
3 373 374 372 
3 375 372 374 
3 377 378 376 
3 379 376 378 
3 382 383 381 
3 380 381 383 
3 387 384 386 
3 385 386 384 
3 391 388 390 
3 389 390 388 
3 392 393 395 
3 393 394 395 
3 396 397 399 
3 398 399 397 
3 400 401 403 
3 401 402 403 
3 407 404 406 
3 405 406 404 
3 411 408 410 
3 409 410 408 
3 415 412 414 
3 413 414 412 
3 419 416 418 
3 417 418 416 
3 420 421 423 
3 422 423 421 
3 424 425 427 
3 426 427 425 
3 428 429 431 
3 430 431 429 
3 432 433 435 
3 434 435 433 
3 439 436 438 
3 437 438 436 
3 441 442 440 
3 443 440 442 
3 446 447 445 
3 444 445 447 
3 449 450 448 
3 451 448 450 
3 453 454 452 
3 454 455 452 
3 457 458 456 
3 459 456 458 
3 461 462 460 
3 463 460 462 
3 466 467 465 
3 464 465 467 
3 470 471 469 
3 468 469 471 
3 473 474 472 
3 474 475 472 
3 477 478 476 
3 479 476 478 
3 481 482 480 
3 483 480 482 
3 484 485 487 
3 486 487 485 
3 488 489 491 
3 489 490 491 
3 495 492 494 
3 493 494 492 
3 497 498 496 
3 499 496 498 
3 500 501 503 
3 502 503 501 
3 506 507 505 
3 504 505 507 
3 510 511 509 
3 508 509 511 
3 514 515 513 
3 512 513 515 
3 516 517 519 
3 518 519 517 
3 520 521 523 
3 522 523 521 
3 524 525 527 
3 526 527 525 
3 530 531 529 
3 528 529 531 
3 532 533 535 
3 534 535 533 
3 536 537 539 
3 538 539 537 
3 540 541 543 
3 542 543 541 
3 546 547 545 
3 547 544 545 
3 548 549 551 
3 550 551 549 
3 552 553 555 
3 554 555 553 
3 556 557 559 
3 558 559 557 
3 560 561 563 
3 562 563 561 
3 564 565 567 
3 565 566 567 
3 568 569 571 
3 570 571 569 
3 572 573 575 
3 575 573 574 
3 576 577 579 
3 578 579 577 
3 581 582 580 
3 583 580 582 
3 584 585 587 
3 586 587 585 
3 589 590 588 
3 591 588 590 
3 592 593 595 
3 594 595 593 
3 596 597 599 
3 598 599 597 
3 601 602 600 
3 603 600 602 
3 605 606 604 
3 607 604 606 
3 609 610 608 
3 610 611 608 
3 613 614 612 
3 615 612 614 
3 619 616 618 
3 617 618 616 
3 621 622 620 
3 623 620 622 
3 624 625 627 
3 626 627 625 
3 630 631 629 
3 628 629 631 
3 632 633 635 
3 634 635 633 
3 636 637 639 
3 639 637 638 
3 640 641 643 
3 643 641 642 
3 644 645 647 
3 646 647 645 
3 648 649 651 
3 650 651 649 
3 652 653 655 
3 654 655 653 
3 656 657 659 
3 658 659 657 
3 660 661 663 
3 663 661 662 
3 667 664 666 
3 665 666 664 
3 671 668 670 
3 669 670 668 
3 675 672 674 
3 673 674 672 
3 679 676 678 
3 677 678 676 
3 681 682 680 
3 683 680 682 
3 684 685 687 
3 686 687 685 
3 690 691 689 
3 688 689 691 
3 693 694 692 
3 692 694 695 
3 697 698 696 
3 699 696 698 
3 700 701 703 
3 702 703 701 
3 707 704 706 
3 705 706 704 
3 711 708 710 
3 708 709 710 
3 712 713 715 
3 714 715 713 
3 716 717 719 
3 719 717 718 
3 721 722 720 
3 723 720 722 
3 725 726 724 
3 727 724 726 
3 729 730 728 
3 731 728 730 
3 735 732 734 
3 733 734 732 
3 737 738 736 
3 739 736 738 
3 742 743 741 
3 740 741 743 
3 744 745 747 
3 746 747 745 
3 750 751 749 
3 748 749 751 
3 754 755 753 
3 752 753 755 
3 758 759 757 
3 756 757 759 
3 762 763 761 
3 760 761 763 
3 765 766 764 
3 767 764 766 
3 769 770 768 
3 771 768 770 
3 774 775 773 
3 772 773 775 
3 777 778 776 
3 779 776 778 
3 782 783 781 
3 783 780 781 
3 785 786 784 
3 787 784 786 
3 791 788 790 
3 789 790 788 
3 795 792 794 
3 793 794 792 
3 799 796 798 
3 797 798 796 
3 802 803 801 
3 801 803 800 
3 806 807 805 
3 804 805 807 
3 810 811 809 
3 809 811 808 
3 814 815 813 
3 812 813 815 
3 818 819 817 
3 816 817 819 
3 821 822 820 
3 823 820 822 
3 825 826 824 
3 827 824 826 
3 829 830 828 
3 831 828 830 
3 835 832 834 
3 833 834 832 
3 836 837 839 
3 838 839 837 
3 843 840 842 
3 841 842 840 
3 844 845 847 
3 846 847 845 
3 850 851 849 
3 848 849 851 
3 854 855 853 
3 852 853 855 
3 858 859 857 
3 856 857 859 
3 860 861 863 
3 862 863 861 
3 864 865 867 
3 866 867 865 
3 868 869 871 
3 870 871 869 
3 872 873 875 
3 874 875 873 
3 879 876 878 
3 877 878 876 
3 883 880 882 
3 881 882 880 
3 887 884 886 
3 884 885 886 
3 891 888 890 
3 888 889 890 
3 895 892 894 
3 894 892 893 
3 898 899 897 
3 896 897 899 
3 902 903 901 
3 900 901 903 
3 906 907 905 
3 904 905 907 
3 910 911 909 
3 908 909 911 
3 914 915 913 
3 912 913 915 
3 918 919 917 
3 916 917 919 
3 922 923 921 
3 923 920 921 
3 926 927 925 
3 924 925 927 
3 930 931 929 
3 928 929 931 
3 934 935 933 
3 932 933 935 
3 938 939 937 
3 939 936 937 
3 942 943 941 
3 940 941 943 
3 946 947 945 
3 944 945 947 
3 950 951 949 
3 948 949 951 
3 954 955 953 
3 952 953 955 
3 958 959 957 
3 956 957 959 
3 963 960 962 
3 962 960 961 
3 967 964 966 
3 965 966 964 
3 968 969 971 
3 970 971 969 
3 972 973 975 
3 974 975 973 
3 976 977 979 
3 978 979 977 
3 983 980 982 
3 981 982 980 
3 987 984 986 
3 985 986 984 
3 991 988 990 
3 989 990 988 
3 995 992 994 
3 993 994 992 
3 996 997 999 
3 998 999 997 
3 1000 1001 1003 
3 1002 1003 1001 
3 1004 1005 1007 
3 1006 1007 1005 
3 1008 1009 1011 
3 1010 1011 1009 
3 1015 1012 1014 
3 1013 1014 1012 
3 1018 1019 1017 
3 1016 1017 1019 
3 1021 1022 1020 
3 1023 1020 1022 
3 1024 1025 1027 
3 1026 1027 1025 
3 1028 1029 1031 
3 1030 1031 1029 
3 1032 1033 1035 
3 1034 1035 1033 
3 1036 1037 1039 
3 1038 1039 1037 
3 1040 1041 1043 
3 1043 1041 1042 
3 1044 1045 1047 
3 1046 1047 1045 
3 1048 1049 1051 
3 1050 1051 1049 
3 1052 1053 1055 
3 1054 1055 1053 
3 1056 1057 1059 
3 1058 1059 1057 
3 1060 1061 1063 
3 1062 1063 1061 
3 1064 1065 1067 
3 1066 1067 1065 
3 1068 1069 1071 
3 1070 1071 1069 
3 1072 1073 1075 
3 1074 1075 1073 
3 1076 1077 1079 
3 1078 1079 1077 
3 1080 1081 1083 
3 1082 1083 1081 
3 1084 1085 1087 
3 1086 1087 1085 
3 1090 1091 1089 
3 1088 1089 1091 
3 1095 1092 1094 
3 1093 1094 1092 
3 1098 1099 1097 
3 1096 1097 1099 
3 1103 1100 1102 
3 1101 1102 1100 
3 1106 1107 1105 
3 1104 1105 1107 
3 1111 1108 1110 
3 1109 1110 1108 
3 1114 1115 1113 
3 1112 1113 1115 
3 1119 1116 1118 
3 1117 1118 1116 
3 1123 1120 1122 
3 1121 1122 1120 
3 1127 1124 1126 
3 1125 1126 1124 
3 1130 1131 1129 
3 1128 1129 1131 
3 1134 1135 1133 
3 1135 1132 1133 
3 1139 1136 1138 
3 1138 1136 1137 
3 1143 1140 1142 
3 1141 1142 1140 
3 1146 1147 1145 
3 1144 1145 1147 
3 1150 1151 1149 
3 1148 1149 1151 
3 1155 1152 1154 
3 1153 1154 1152 
3 1159 1156 1158 
3 1157 1158 1156 
3 1161 1162 1160 
3 1163 1160 1162 
3 1167 1164 1166 
3 1165 1166 1164 
3 1171 1168 1170 
3 1169 1170 1168 
3 1173 1174 1172 
3 1175 1172 1174 
3 1179 1176 1178 
3 1177 1178 1176 
3 1183 1180 1182 
3 1181 1182 1180 
3 1187 1184 1186 
3 1185 1186 1184 
3 1191 1188 1190 
3 1189 1190 1188 
3 1195 1192 1194 
3 1192 1193 1194 
3 1199 1196 1198 
3 1197 1198 1196 
3 1203 1200 1202 
3 1202 1200 1201 
3 1205 1206 1204 
3 1207 1204 1206 
3 1211 1208 1210 
3 1209 1210 1208 
3 1215 1212 1214 
3 1213 1214 1212 
3 1218 1219 1217 
3 1216 1217 1219 
3 1223 1220 1222 
3 1221 1222 1220 
3 1226 1227 1225 
3 1224 1225 1227 
3 1231 1228 1230 
3 1229 1230 1228 
3 1234 1235 1233 
3 1232 1233 1235 
3 1238 1239 1237 
3 1236 1237 1239 
3 1243 1240 1242 
3 1241 1242 1240 
3 1247 1244 1246 
3 1245 1246 1244 
3 1251 1248 1250 
3 1249 1250 1248 
3 1255 1252 1254 
3 1253 1254 1252 
3 1259 1256 1258 
3 1258 1256 1257 
3 1263 1260 1262 
3 1261 1262 1260 
3 1266 1267 1265 
3 1264 1265 1267 
3 1270 1271 1269 
3 1269 1271 1268 
3 1274 1275 1273 
3 1272 1273 1275 
3 1278 1279 1277 
3 1276 1277 1279 
3 1281 1282 1280 
3 1283 1280 1282 
3 1284 1285 1287 
3 1286 1287 1285 
3 1289 1290 1288 
3 1291 1288 1290 
3 1292 1293 1295 
3 1294 1295 1293 
3 1296 1297 1299 
3 1298 1299 1297 
3 1302 1303 1301 
3 1300 1301 1303 
3 1307 1304 1306 
3 1305 1306 1304 
3 1309 1310 1308 
3 1310 1311 1308 
3 1312 1313 1315 
3 1314 1315 1313 
3 1316 1317 1319 
3 1318 1319 1317 
3 1320 1321 1323 
3 1322 1323 1321 
3 1324 1325 1327 
3 1326 1327 1325 
3 1329 1330 1328 
3 1331 1328 1330 
3 1333 1334 1332 
3 1335 1332 1334 
3 1337 1338 1336 
3 1339 1336 1338 
3 1341 1342 1340 
3 1343 1340 1342 
3 1347 1344 1346 
3 1345 1346 1344 
3 1351 1348 1350 
3 1349 1350 1348 
3 1355 1352 1354 
3 1354 1352 1353 
3 1359 1356 1358 
3 1357 1358 1356 
3 1362 1363 1361 
3 1360 1361 1363 
3 1366 1367 1365 
3 1364 1365 1367 
3 1370 1371 1369 
3 1368 1369 1371 
3 1372 1373 1375 
3 1374 1375 1373 
3 1379 1376 1378 
3 1377 1378 1376 
3 1381 1382 1380 
3 1383 1380 1382 
3 1384 1385 1387 
3 1387 1385 1386 
3 1388 1389 1391 
3 1390 1391 1389 
3 1395 1392 1394 
3 1393 1394 1392 
3 1399 1396 1398 
3 1397 1398 1396 
3 1403 1400 1402 
3 1402 1400 1401 
3 1406 1407 1405 
3 1404 1405 1407 
3 1410 1411 1409 
3 1408 1409 1411 
3 1412 1413 1415 
3 1414 1415 1413 
3 1416 1417 1419 
3 1418 1419 1417 
3 1420 1421 1423 
3 1422 1423 1421 
3 1426 1427 1425 
3 1424 1425 1427 
3 1428 1429 1431 
3 1429 1430 1431 
3 1432 1433 1435 
3 1434 1435 1433 
3 1436 1437 1439 
3 1439 1437 1438 
3 1440 1441 1443 
3 1442 1443 1441 
3 1444 1445 1447 
3 1446 1447 1445 
3 1448 1449 1451 
3 1450 1451 1449 
3 1452 1453 1455 
3 1454 1455 1453 
3 1458 1459 1457 
3 1456 1457 1459 
3 1460 1461 1463 
3 1462 1463 1461 
3 1464 1465 1467 
3 1466 1467 1465 
3 1468 1469 1471 
3 1470 1471 1469 
3 1472 1473 1475 
3 1474 1475 1473 
3 1476 1477 1479 
3 1478 1479 1477 
3 1483 1480 1482 
3 1481 1482 1480 
3 1487 1484 1486 
3 1485 1486 1484 
3 1488 1489 1491 
3 1490 1491 1489 
3 1492 1493 1495 
3 1493 1494 1495 
3 1496 1497 1499 
3 1498 1499 1497 
3 1502 1503 1501 
3 1500 1501 1503 
3 1504 1505 1507 
3 1506 1507 1505 
3 1511 1508 1510 
3 1509 1510 1508 
3 1513 1514 1512 
3 1515 1512 1514 
3 1519 1516 1518 
3 1517 1518 1516 
3 1523 1520 1522 
3 1522 1520 1521 
3 1527 1524 1526 
3 1525 1526 1524 
3 1531 1528 1530 
3 1529 1530 1528 
3 1532 1533 1535 
3 1534 1535 1533 
3 1536 1537 1539 
3 1537 1538 1539 
3 1540 1541 1543 
3 1542 1543 1541 
3 1544 1545 1547 
3 1546 1547 1545 
3 1548 1549 1551 
3 1550 1551 1549 
3 1552 1553 1555 
3 1554 1555 1553 
3 1556 1557 1559 
3 1558 1559 1557 
3 1563 1560 1562 
3 1561 1562 1560 
3 1567 1564 1566 
3 1564 1565 1566 
3 1570 1571 1569 
3 1568 1569 1571 
3 1572 1573 1575 
3 1574 1575 1573 
3 1579 1576 1578 
3 1577 1578 1576 
3 1581 1582 1580 
3 1583 1580 1582 
3 1585 1586 1584 
3 1587 1584 1586 
3 1589 1590 1588 
3 1591 1588 1590 
3 1593 1594 1592 
3 1592 1594 1595 
3 1596 1597 1599 
3 1597 1598 1599 
3 1601 1602 1600 
3 1603 1600 1602 
3 1604 1605 1607 
3 1606 1607 1605 
3 1609 1610 1608 
3 1608 1610 1611 
3 1612 1613 1615 
3 1613 1614 1615 
3 1619 1616 1618 
3 1617 1618 1616 
3 1623 1620 1622 
3 1621 1622 1620 
3 1626 1627 1625 
3 1624 1625 1627 
3 1630 1631 1629 
3 1628 1629 1631 
3 1634 1635 1633 
3 1632 1633 1635 
3 1638 1639 1637 
3 1636 1637 1639 
3 1640 1641 1643 
3 1642 1643 1641 
3 1646 1647 1645 
3 1644 1645 1647 
3 1651 1648 1650 
3 1649 1650 1648 
3 1653 1654 1652 
3 1655 1652 1654 
3 1659 1656 1658 
3 1657 1658 1656 
3 1663 1660 1662 
3 1661 1662 1660 
3 1667 1664 1666 
3 1665 1666 1664 
3 1671 1668 1670 
3 1669 1670 1668 
3 1674 1675 1673 
3 1672 1673 1675 
3 1678 1679 1677 
3 1677 1679 1676 
3 1683 1680 1682 
3 1681 1682 1680 
3 1687 1684 1686 
3 1685 1686 1684 
3 1691 1688 1690 
3 1689 1690 1688 
3 1695 1692 1694 
3 1693 1694 1692 
3 1698 1699 1697 
3 1696 1697 1699 
3 1702 1703 1701 
3 1700 1701 1703 
3 1706 1707 1705 
3 1707 1704 1705 
3 1710 1711 1709 
3 1708 1709 1711 
3 1714 1715 1713 
3 1713 1715 1712 
3 1717 1718 1716 
3 1719 1716 1718 
3 1721 1722 1720 
3 1723 1720 1722 
3 1725 1726 1724 
3 1727 1724 1726 
3 1729 1730 1728 
3 1731 1728 1730 
3 1733 1734 1732 
3 1735 1732 1734 
3 1736 1737 1739 
3 1738 1739 1737 
3 1740 1741 1743 
3 1742 1743 1741 
3 1746 1747 1745 
3 1744 1745 1747 
3 1749 1750 1748 
3 1748 1750 1751 
3 1753 1754 1752 
3 1752 1754 1755 
3 1757 1758 1756 
3 1756 1758 1759 
3 1761 1762 1760 
3 1763 1760 1762 
3 1765 1766 1764 
3 1767 1764 1766 
3 1768 1769 1771 
3 1770 1771 1769 
3 1772 1773 1775 
3 1774 1775 1773 
3 1776 1777 1779 
3 1778 1779 1777 
3 1780 1781 1783 
3 1782 1783 1781 
3 1786 1787 1785 
3 1784 1785 1787 
3 1790 1791 1789 
3 1788 1789 1791 

CELL_TYPES 896
5
5
5
5
5
5
5
5
5
5
5
5
5
5
5
5
5
5
5
5
5
5
5
5
5
5
5
5
5
5
5
5
5
5
5
5
5
5
5
5
5
5
5
5
5
5
5
5
5
5
5
5
5
5
5
5
5
5
5
5
5
5
5
5
5
5
5
5
5
5
5
5
5
5
5
5
5
5
5
5
5
5
5
5
5
5
5
5
5
5
5
5
5
5
5
5
5
5
5
5
5
5
5
5
5
5
5
5
5
5
5
5
5
5
5
5
5
5
5
5
5
5
5
5
5
5
5
5
5
5
5
5
5
5
5
5
5
5
5
5
5
5
5
5
5
5
5
5
5
5
5
5
5
5
5
5
5
5
5
5
5
5
5
5
5
5
5
5
5
5
5
5
5
5
5
5
5
5
5
5
5
5
5
5
5
5
5
5
5
5
5
5
5
5
5
5
5
5
5
5
5
5
5
5
5
5
5
5
5
5
5
5
5
5
5
5
5
5
5
5
5
5
5
5
5
5
5
5
5
5
5
5
5
5
5
5
5
5
5
5
5
5
5
5
5
5
5
5
5
5
5
5
5
5
5
5
5
5
5
5
5
5
5
5
5
5
5
5
5
5
5
5
5
5
5
5
5
5
5
5
5
5
5
5
5
5
5
5
5
5
5
5
5
5
5
5
5
5
5
5
5
5
5
5
5
5
5
5
5
5
5
5
5
5
5
5
5
5
5
5
5
5
5
5
5
5
5
5
5
5
5
5
5
5
5
5
5
5
5
5
5
5
5
5
5
5
5
5
5
5
5
5
5
5
5
5
5
5
5
5
5
5
5
5
5
5
5
5
5
5
5
5
5
5
5
5
5
5
5
5
5
5
5
5
5
5
5
5
5
5
5
5
5
5
5
5
5
5
5
5
5
5
5
5
5
5
5
5
5
5
5
5
5
5
5
5
5
5
5
5
5
5
5
5
5
5
5
5
5
5
5
5
5
5
5
5
5
5
5
5
5
5
5
5
5
5
5
5
5
5
5
5
5
5
5
5
5
5
5
5
5
5
5
5
5
5
5
5
5
5
5
5
5
5
5
5
5
5
5
5
5
5
5
5
5
5
5
5
5
5
5
5
5
5
5
5
5
5
5
5
5
5
5
5
5
5
5
5
5
5
5
5
5
5
5
5
5
5
5
5
5
5
5
5
5
5
5
5
5
5
5
5
5
5
5
5
5
5
5
5
5
5
5
5
5
5
5
5
5
5
5
5
5
5
5
5
5
5
5
5
5
5
5
5
5
5
5
5
5
5
5
5
5
5
5
5
5
5
5
5
5
5
5
5
5
5
5
5
5
5
5
5
5
5
5
5
5
5
5
5
5
5
5
5
5
5
5
5
5
5
5
5
5
5
5
5
5
5
5
5
5
5
5
5
5
5
5
5
5
5
5
5
5
5
5
5
5
5
5
5
5
5
5
5
5
5
5
5
5
5
5
5
5
5
5
5
5
5
5
5
5
5
5
5
5
5
5
5
5
5
5
5
5
5
5
5
5
5
5
5
5
5
5
5
5
5
5
5
5
5
5
5
5
5
5
5
5
5
5
5
5
5
5
5
5
5
5
5
5
5
5
5
5
5
5
5
5
5
5
5
5
5
5
5
5
5
5
5
5
5
5
5
5
5
5
5
5
5
5
5
5
5
5
5
5
5
5
5
5
5
5
5
5
5
5
5
5
5
5
5
5
5
5
5
5
5
5
5
5
5
5
5
5
5
5
5
5
5
5
5
5
5
5
5
5
5
5
5
5
5
5
5
5
5
5
5
5
5
5
5
5
5
5
5
5
5
5
5
5
5
5
5
5
5
5
5
5
5
5
5
5
5
5
5
5
5
5
5
5
5
5
5
5
5
5
5
5
5
5
5
5
5
5
5
5
5
5
5
5
5
5
5
5
5
5
5
5
5
5
5
5
5
5
5
5
5
5
5
5
5
5
5
5
5
5
5
5
5
5
5
5
5
5
5
5
5
5
5
5
5
5
5
5
5
5
5

